<?xml version="1.0" encoding="UTF-8"?>
<kml xmlns="http://www.opengis.net/kml/2.2">
  <Document>
    <name>Aust-Snowies</name>
    <description>Vetted snowy mountain info</description>
    <Style id="icon-1502-000000-nodesc-normal">
      <IconStyle>
        <color>ff000000</color>
        <scale>1</scale>
        <Icon>
          <href>http://www.gstatic.com/mapspro/images/stock/503-wht-blank_maps.png</href>
        </Icon>
      </IconStyle>
      <LabelStyle>
        <scale>0</scale>
      </LabelStyle>
      <BalloonStyle>
        <text><![CDATA[<h3>$[name]</h3>]]></text>
      </BalloonStyle>
    </Style>
    <Style id="icon-1502-000000-nodesc-highlight">
      <IconStyle>
        <color>ff000000</color>
        <scale>1</scale>
        <Icon>
          <href>http://www.gstatic.com/mapspro/images/stock/503-wht-blank_maps.png</href>
        </Icon>
      </IconStyle>
      <LabelStyle>
        <scale>1</scale>
      </LabelStyle>
      <BalloonStyle>
        <text><![CDATA[<h3>$[name]</h3>]]></text>
      </BalloonStyle>
    </Style>
    <StyleMap id="icon-1502-000000-nodesc">
      <Pair>
        <key>normal</key>
        <styleUrl>#icon-1502-000000-nodesc-normal</styleUrl>
      </Pair>
      <Pair>
        <key>highlight</key>
        <styleUrl>#icon-1502-000000-nodesc-highlight</styleUrl>
      </Pair>
    </StyleMap>
    <Style id="icon-1899-0288D1-normal">
      <IconStyle>
        <color>ffd18802</color>
        <scale>1</scale>
        <Icon>
          <href>http://www.gstatic.com/mapspro/images/stock/503-wht-blank_maps.png</href>
        </Icon>
        <hotSpot x="32" xunits="pixels" y="64" yunits="insetPixels"/>
      </IconStyle>
      <LabelStyle>
        <scale>0</scale>
      </LabelStyle>
    </Style>
    <Style id="icon-1899-0288D1-highlight">
      <IconStyle>
        <color>ffd18802</color>
        <scale>1</scale>
        <Icon>
          <href>http://www.gstatic.com/mapspro/images/stock/503-wht-blank_maps.png</href>
        </Icon>
        <hotSpot x="32" xunits="pixels" y="64" yunits="insetPixels"/>
      </IconStyle>
      <LabelStyle>
        <scale>1</scale>
      </LabelStyle>
    </Style>
    <StyleMap id="icon-1899-0288D1">
      <Pair>
        <key>normal</key>
        <styleUrl>#icon-1899-0288D1-normal</styleUrl>
      </Pair>
      <Pair>
        <key>highlight</key>
        <styleUrl>#icon-1899-0288D1-highlight</styleUrl>
      </Pair>
    </StyleMap>
    <Style id="icon-1899-0288D1-nodesc-normal">
      <IconStyle>
        <color>ffd18802</color>
        <scale>1</scale>
        <Icon>
          <href>http://www.gstatic.com/mapspro/images/stock/503-wht-blank_maps.png</href>
        </Icon>
        <hotSpot x="32" xunits="pixels" y="64" yunits="insetPixels"/>
      </IconStyle>
      <LabelStyle>
        <scale>0</scale>
      </LabelStyle>
      <BalloonStyle>
        <text><![CDATA[<h3>$[name]</h3>]]></text>
      </BalloonStyle>
    </Style>
    <Style id="icon-1899-0288D1-nodesc-highlight">
      <IconStyle>
        <color>ffd18802</color>
        <scale>1</scale>
        <Icon>
          <href>http://www.gstatic.com/mapspro/images/stock/503-wht-blank_maps.png</href>
        </Icon>
        <hotSpot x="32" xunits="pixels" y="64" yunits="insetPixels"/>
      </IconStyle>
      <LabelStyle>
        <scale>1</scale>
      </LabelStyle>
      <BalloonStyle>
        <text><![CDATA[<h3>$[name]</h3>]]></text>
      </BalloonStyle>
    </Style>
    <StyleMap id="icon-1899-0288D1-nodesc">
      <Pair>
        <key>normal</key>
        <styleUrl>#icon-1899-0288D1-nodesc-normal</styleUrl>
      </Pair>
      <Pair>
        <key>highlight</key>
        <styleUrl>#icon-1899-0288D1-nodesc-highlight</styleUrl>
      </Pair>
    </StyleMap>
    <Style id="line-000000-1200-nodesc-normal">
      <LineStyle>
        <color>ff000000</color>
        <width>1.2</width>
      </LineStyle>
      <BalloonStyle>
        <text><![CDATA[<h3>$[name]</h3>]]></text>
      </BalloonStyle>
    </Style>
    <Style id="line-000000-1200-nodesc-highlight">
      <LineStyle>
        <color>ff000000</color>
        <width>1.8</width>
      </LineStyle>
      <BalloonStyle>
        <text><![CDATA[<h3>$[name]</h3>]]></text>
      </BalloonStyle>
    </Style>
    <StyleMap id="line-000000-1200-nodesc">
      <Pair>
        <key>normal</key>
        <styleUrl>#line-000000-1200-nodesc-normal</styleUrl>
      </Pair>
      <Pair>
        <key>highlight</key>
        <styleUrl>#line-000000-1200-nodesc-highlight</styleUrl>
      </Pair>
    </StyleMap>
    <Folder>
      <name>Untitled layer</name>
      <Placemark>
        <name>Perisher Ski Resort</name>
        <styleUrl>#icon-1899-0288D1-nodesc</styleUrl>
        <Point>
          <coordinates>
            148.4094358,-36.4055484,0
          </coordinates>
        </Point>
      </Placemark>
      <Placemark>
        <name>Island Bend campground</name>
        <styleUrl>#icon-1899-0288D1-nodesc</styleUrl>
        <Point>
          <coordinates>
            148.4778693,-36.3231997,0
          </coordinates>
        </Point>
      </Placemark>
      <Placemark>
        <name>SKITUBE - Bullocks Flat</name>
        <styleUrl>#icon-1899-0288D1-nodesc</styleUrl>
        <Point>
          <coordinates>
            148.442208,-36.4428295,0
          </coordinates>
        </Point>
      </Placemark>
      <Placemark>
        <name>Thredbo Diggings campground</name>
        <styleUrl>#icon-1899-0288D1-nodesc</styleUrl>
        <Point>
          <coordinates>
            148.425368,-36.4470963,0
          </coordinates>
        </Point>
      </Placemark>
      <Placemark>
        <name>Ngarigo campground</name>
        <styleUrl>#icon-1899-0288D1-nodesc</styleUrl>
        <Point>
          <coordinates>
            148.3837987,-36.4587823,0
          </coordinates>
        </Point>
      </Placemark>
      <Placemark>
        <name>Thredbo</name>
        <styleUrl>#icon-1899-0288D1-nodesc</styleUrl>
        <Point>
          <coordinates>
            148.310377,-36.5012959,0
          </coordinates>
        </Point>
      </Placemark>
      <Placemark>
        <name>Guthega Power Station</name>
        <styleUrl>#icon-1899-0288D1-nodesc</styleUrl>
        <Point>
          <coordinates>
            148.413746,-36.3501439,0
          </coordinates>
        </Point>
      </Placemark>
      <Placemark>
        <name>Copper Tom Camp</name>
        <styleUrl>#icon-1899-0288D1-nodesc</styleUrl>
        <Point>
          <coordinates>
            148.6301,-36.4266,0
          </coordinates>
        </Point>
      </Placemark>
      <Placemark>
        <name>Valentine Hut</name>
        <styleUrl>#icon-1899-0288D1-nodesc</styleUrl>
        <Point>
          <coordinates>
            148.3717453,-36.2269915,0
          </coordinates>
        </Point>
      </Placemark>
      <Placemark>
        <name>Grey Mare Hut</name>
        <styleUrl>#icon-1899-0288D1-nodesc</styleUrl>
        <Point>
          <coordinates>
            148.3383358,-36.2120693,0
          </coordinates>
        </Point>
      </Placemark>
      <Placemark>
        <name>Watsons Crags</name>
        <styleUrl>#icon-1899-0288D1-nodesc</styleUrl>
        <Point>
          <coordinates>
            148.295902,-36.3800189,0
          </coordinates>
        </Point>
      </Placemark>
      <Placemark>
        <name>Blue Lake</name>
        <styleUrl>#icon-1899-0288D1-nodesc</styleUrl>
        <Point>
          <coordinates>
            148.3171237,-36.4060424,0
          </coordinates>
        </Point>
      </Placemark>
      <Placemark>
        <name>Rams Head North</name>
        <styleUrl>#icon-1899-0288D1-nodesc</styleUrl>
        <Point>
          <coordinates>
            148.2700026,-36.4825789,0
          </coordinates>
        </Point>
      </Placemark>
      <Placemark>
        <name>Kozi</name>
        <styleUrl>#icon-1899-0288D1-nodesc</styleUrl>
        <Point>
          <coordinates>
            148.2635439,-36.4559016,0
          </coordinates>
        </Point>
      </Placemark>
      <Placemark>
        <name>Toilet</name>
        <styleUrl>#icon-1899-0288D1-nodesc</styleUrl>
        <Point>
          <coordinates>
            148.2692945,-36.4573513,0
          </coordinates>
        </Point>
      </Placemark>
      <Placemark>
        <name><![CDATA[Seaman's Hut]]></name>
        <styleUrl>#icon-1899-0288D1-nodesc</styleUrl>
        <Point>
          <coordinates>
            148.2827307,-36.4502197,0
          </coordinates>
        </Point>
      </Placemark>
      <Placemark>
        <name>Thredbo - Eagles Nest</name>
        <styleUrl>#icon-1899-0288D1-nodesc</styleUrl>
        <Point>
          <coordinates>
            148.2872117,-36.4935682,0
          </coordinates>
        </Point>
      </Placemark>
      <Placemark>
        <name>? Ski Area ?</name>
        <styleUrl>#icon-1899-0288D1-nodesc</styleUrl>
        <Point>
          <coordinates>
            148.3328502,-36.3698722,0
          </coordinates>
        </Point>
      </Placemark>
      <Placemark>
        <name>Day 1</name>
        <styleUrl>#line-000000-1200-nodesc</styleUrl>
        <LineString>
          <tessellate>1</tessellate>
          <coordinates>
            148.3869744,-36.4091896,0
            148.3755593,-36.4038356,0
            148.36792,-36.3967549,0
            148.349297,-36.4028005,0
            148.3294679,-36.421277,0
            148.3176232,-36.4169948,0
            148.3162499,-36.4131268,0
            148.3212281,-36.4093968,0
            148.3183099,-36.4056666,0
          </coordinates>
        </LineString>
      </Placemark>
      <Placemark>
        <name>Day 2</name>
        <styleUrl>#line-000000-1200-nodesc</styleUrl>
        <LineString>
          <tessellate>1</tessellate>
          <coordinates>
            148.3195115,-36.4053903,0
            148.3270646,-36.4062192,0
            148.3289529,-36.402627,0
            148.3303262,-36.3900531,0
            148.3268929,-36.3871511,0
            148.3325578,-36.3839726,0
            148.3316994,-36.3697369,0
            148.3294679,-36.3831434,0
            148.3153916,-36.3929549,0
            148.3044053,-36.3950276,0
            148.2978822,-36.3888094,0
            148.295902,-36.3800189,0
            148.2978822,-36.3889476,0
            148.304577,-36.3955803,0
            148.3038903,-36.4038705,0
            148.3071519,-36.4078771,0
            148.3165932,-36.4088442,0
            148.3177949,-36.4071863,0
          </coordinates>
        </LineString>
      </Placemark>
      <Placemark>
        <name>Day 3</name>
        <styleUrl>#line-000000-1200-nodesc</styleUrl>
        <LineString>
          <tessellate>1</tessellate>
          <coordinates>
            148.3177949,-36.4071863,0
            148.3165932,-36.4088442,0
            148.3071519,-36.4078771,0
            148.2971526,-36.4068755,0
            148.2903291,-36.4099494,0
            148.2876255,-36.409224,0
            148.2860804,-36.4162695,0
            148.2800294,-36.4210008,0
            148.2726479,-36.435296,0
            148.270588,-36.4404749,0
            148.2635439,-36.4559016,0
            148.2689102,-36.4577149,0
            148.2700918,-36.465697,0
            148.2792139,-36.481686,0
            148.2872117,-36.4935682,0
            148.3092118,-36.5014898,0
          </coordinates>
        </LineString>
      </Placemark>
      <Placemark>
        <name>Day 1 - Alternate</name>
        <styleUrl>#line-000000-1200-nodesc</styleUrl>
        <LineString>
          <tessellate>1</tessellate>
          <coordinates>
            148.4094772,-36.4068781,0
            148.4027824,-36.411299,0
            148.3960876,-36.4133712,0
            148.3949718,-36.4156506,0
            148.3899936,-36.4168938,0
            148.3792648,-36.4223502,0
            148.3706817,-36.4264939,0
            148.3591804,-36.4294635,0
            148.3518848,-36.426563,0
            148.3383235,-36.4311209,0
            148.3285388,-36.4318114,0
            148.3294679,-36.421277,0
            148.3176232,-36.4169948,0
            148.3162499,-36.4131268,0
            148.3212281,-36.4093968,0
            148.3179816,-36.4063946,0
          </coordinates>
        </LineString>
      </Placemark>
      <Placemark>
        <name>Kosciuszko Tourist Park</name>
        <description>unpowered with amenities: $45/night</description>
        <styleUrl>#icon-1899-0288D1</styleUrl>
        <Point>
          <coordinates>
            148.5644052,-36.3513313,0
          </coordinates>
        </Point>
      </Placemark>
      <Placemark>
        <name>Discovery Parks - Jindabyne</name>
        <styleUrl>#icon-1899-0288D1-nodesc</styleUrl>
        <Point>
          <coordinates>
            148.5969171,-36.4099082,0
          </coordinates>
        </Point>
      </Placemark>
      <Placemark>
        <name>NRMA Jindabyne Holiday Park</name>
        <description>$44/night 6pax, I car park</description>
        <styleUrl>#icon-1899-0288D1</styleUrl>
        <Point>
          <coordinates>
            148.6197506,-36.4132918,0
          </coordinates>
        </Point>
      </Placemark>
      <Placemark>
        <name><![CDATA[Whites River Hut & Camping Area]]></name>
        <styleUrl>#icon-1899-0288D1-nodesc</styleUrl>
        <Point>
          <coordinates>
            148.3857549,-36.2998419,0
          </coordinates>
        </Point>
      </Placemark>
      <Placemark>
        <name><![CDATA[Schlink's Hut]]></name>
        <styleUrl>#icon-1899-0288D1-nodesc</styleUrl>
        <Point>
          <coordinates>
            148.3851537,-36.2750561,0
          </coordinates>
        </Point>
      </Placemark>
      <Placemark>
        <name>Tin Hut</name>
        <styleUrl>#icon-1899-0288D1-nodesc</styleUrl>
        <Point>
          <coordinates>
            148.4239401,-36.2646848,0
          </coordinates>
        </Point>
      </Placemark>
      <Placemark>
        <name><![CDATA[Mawson's Hut]]></name>
        <styleUrl>#icon-1899-0288D1-nodesc</styleUrl>
        <Point>
          <coordinates>
            148.4033954,-36.2220062,0
          </coordinates>
        </Point>
      </Placemark>
      <Placemark>
        <name>limit</name>
        <styleUrl>#icon-1502-000000-nodesc</styleUrl>
        <Point>
          <coordinates>
            148.3348325,-36.3490659,0
          </coordinates>
        </Point>
      </Placemark>
      <Placemark>
        <name>limit</name>
        <styleUrl>#icon-1502-000000-nodesc</styleUrl>
        <Point>
          <coordinates>
            148.4323793,-36.2599162,0
          </coordinates>
        </Point>
      </Placemark>
    </Folder>
  </Document>
</kml>
