<?xml version='1.0' encoding='UTF-8'?>
<kml xmlns='http://www.opengis.net/kml/2.2'>
	<Document>
		<name>Main Range</name>
		<description><![CDATA[Points to note on the Main Range]]></description>
		<Folder>
			<name>EmuValePoints</name>
			<Placemark>
				<name>Lower Emu Vale Car park</name>
				<description><![CDATA[Lat: 28° 12' 47.61" S<br>Long: 152° 25' 35.89" E]]></description>
				<styleUrl>#icon-503-DB4436</styleUrl>
				<ExtendedData>
					<Data name='Lat'>
						<value>28° 12' 47.61" S</value>
					</Data>
					<Data name='Long'>
						<value>152° 25' 35.89" E</value>
					</Data>
				</ExtendedData>
				<Point>
					<coordinates>152.4266361111111,-28.213224999999998,0.0</coordinates>
				</Point>
			</Placemark>
			<Placemark>
				<name>Bivi cave</name>
				<description><![CDATA[Lat: 28°12'14.69"S<br>Long: 152°25'51.61"E]]></description>
				<styleUrl>#icon-503-DB4436</styleUrl>
				<ExtendedData>
					<Data name='Lat'>
						<value>28°12'14.69"S</value>
					</Data>
					<Data name='Long'>
						<value>152°25'51.61"E</value>
					</Data>
				</ExtendedData>
				<Point>
					<coordinates>152.43100277777776,-28.204080555555556,0.0</coordinates>
				</Point>
			</Placemark>
			<Placemark>
				<name>Stern - cave</name>
				<description><![CDATA[Lat: 28° 11' 57.0998" S<br>Long: 152° 26' 27.87" E]]></description>
				<styleUrl>#icon-503-DB4436</styleUrl>
				<ExtendedData>
					<Data name='Lat'>
						<value>28° 11' 57.0998" S</value>
					</Data>
					<Data name='Long'>
						<value>152° 26' 27.87" E</value>
					</Data>
				</ExtendedData>
				<Point>
					<coordinates>152.441075,-28.199194388888888,0.0</coordinates>
				</Point>
			</Placemark>
			<Placemark>
				<name>Ridge Camp (Water)</name>
				<description><![CDATA[Lat: 28° 11' 25.39" S<br>Long: 152° 27' 3.2101" E]]></description>
				<styleUrl>#icon-503-DB4436</styleUrl>
				<ExtendedData>
					<Data name='Lat'>
						<value>28° 11' 25.39" S</value>
					</Data>
					<Data name='Long'>
						<value>152° 27' 3.2101" E</value>
					</Data>
				</ExtendedData>
				<Point>
					<coordinates>152.45089169444444,-28.19038611111111,0.0</coordinates>
				</Point>
			</Placemark>
			<Placemark>
				<name>Grassy knoll</name>
				<description><![CDATA[Lat: 28°10'44.88"S<br>Long: 152°26'31.92"E]]></description>
				<styleUrl>#icon-503-DB4436</styleUrl>
				<ExtendedData>
					<Data name='Lat'>
						<value>28°10'44.88"S</value>
					</Data>
					<Data name='Long'>
						<value>152°26'31.92"E</value>
					</Data>
				</ExtendedData>
				<Point>
					<coordinates>152.4422,-28.179133333333336,0.0</coordinates>
				</Point>
			</Placemark>
			<Placemark>
				<name>Lizard point</name>
				<description><![CDATA[Lat: 28°11'35.11"S<br>Long: 152°28'16.49"E]]></description>
				<styleUrl>#icon-503-DB4436</styleUrl>
				<ExtendedData>
					<Data name='Lat'>
						<value>28°11'35.11"S</value>
					</Data>
					<Data name='Long'>
						<value>152°28'16.49"E</value>
					</Data>
				</ExtendedData>
				<Point>
					<coordinates>152.47124722222222,-28.19308611111111,0.0</coordinates>
				</Point>
			</Placemark>
			<Placemark>
				<name>Mt Steamer</name>
				<description><![CDATA[Lat: 28° 11' 44.61" S<br>Long: 152° 27' 17.8099" E]]></description>
				<styleUrl>#icon-503-DB4436</styleUrl>
				<ExtendedData>
					<Data name='Lat'>
						<value>28° 11' 44.61" S</value>
					</Data>
					<Data name='Long'>
						<value>152° 27' 17.8099" E</value>
					</Data>
				</ExtendedData>
				<Point>
					<coordinates>152.45494719444443,-28.195725,0.0</coordinates>
				</Point>
			</Placemark>
			<Placemark>
				<name>Davies ridge camp</name>
				<description><![CDATA[Lat: 28°10'53.81"S<br>Long: 152°26'12.26"E]]></description>
				<styleUrl>#icon-503-DB4436</styleUrl>
				<ExtendedData>
					<Data name='Lat'>
						<value>28°10'53.81"S</value>
					</Data>
					<Data name='Long'>
						<value>152°26'12.26"E</value>
					</Data>
				</ExtendedData>
				<Point>
					<coordinates>152.4367388888889,-28.18161388888889,0.0</coordinates>
				</Point>
			</Placemark>
			<Placemark>
				<name>Davies ridge - trail start</name>
				<description><![CDATA[Lat: 28° 11' 12.07" S<br>Long: 152° 25' 13.8" E]]></description>
				<styleUrl>#icon-503-DB4436</styleUrl>
				<ExtendedData>
					<Data name='Lat'>
						<value>28° 11' 12.07" S</value>
					</Data>
					<Data name='Long'>
						<value>152° 25' 13.8" E</value>
					</Data>
				</ExtendedData>
				<Point>
					<coordinates>152.4205,-28.18668611111111,0.0</coordinates>
				</Point>
			</Placemark>
			<Placemark>
				<name>Leave road for Davies</name>
				<description><![CDATA[Lat: 28°11'19.39"S<br>Long: 152°24'59.77"E]]></description>
				<styleUrl>#icon-503-DB4436</styleUrl>
				<ExtendedData>
					<Data name='Lat'>
						<value>28°11'19.39"S</value>
					</Data>
					<Data name='Long'>
						<value>152°24'59.77"E</value>
					</Data>
				</ExtendedData>
				<Point>
					<coordinates>152.41660277777783,-28.188719444444445,0.0</coordinates>
				</Point>
			</Placemark>
			<Placemark>
				<name>Emu Vale - Road Fork</name>
				<description><![CDATA[Lat: 28° 12' 42.5401" S<br>Long: 152° 23' 56.6599" E]]></description>
				<styleUrl>#icon-503-DB4436</styleUrl>
				<ExtendedData>
					<Data name='Lat'>
						<value>28° 12' 42.5401" S</value>
					</Data>
					<Data name='Long'>
						<value>152° 23' 56.6599" E</value>
					</Data>
				</ExtendedData>
				<Point>
					<coordinates>152.39907219444444,-28.211816694444444,0.0</coordinates>
				</Point>
			</Placemark>
			<Placemark>
				<name>?Access Lizard via NE ridge</name>
				<description><![CDATA[Lat: -28.150487<br>Long: 152.4879169]]></description>
				<styleUrl>#icon-503-F4EB37</styleUrl>
				<ExtendedData>
					<Data name='Lat'>
						<value>-28.150487</value>
					</Data>
					<Data name='Long'>
						<value>152.4879169</value>
					</Data>
				</ExtendedData>
				<Point>
					<coordinates>152.4879169,-28.150487,0.0</coordinates>
				</Point>
			</Placemark>
			<Placemark>
				<name>?Suspected location of Davies ridge camp</name>
				<description><![CDATA[Lat: -28.1871845<br>Long: 152.4266338]]></description>
				<styleUrl>#icon-503-F4EB37</styleUrl>
				<ExtendedData>
					<Data name='Lat'>
						<value>-28.1871845</value>
					</Data>
					<Data name='Long'>
						<value>152.4266338</value>
					</Data>
				</ExtendedData>
				<Point>
					<coordinates>152.4266338,-28.1871845,0.0</coordinates>
				</Point>
			</Placemark>
			<Placemark>
				<name>?Prow (Steamers)</name>
				<description><![CDATA[Lat: -28.2091213<br>Long: 152.4168491]]></description>
				<styleUrl>#icon-503-F4EB37</styleUrl>
				<ExtendedData>
					<Data name='Lat'>
						<value>-28.2091213</value>
					</Data>
					<Data name='Long'>
						<value>152.4168491</value>
					</Data>
				</ExtendedData>
				<Point>
					<coordinates>152.4168491,-28.209121300000003,0.0</coordinates>
				</Point>
			</Placemark>
			<Placemark>
				<name>?Funnel (Steamers)</name>
				<description><![CDATA[Lat: -28.2067766<br>Long: 152.4259472]]></description>
				<styleUrl>#icon-503-F4EB37</styleUrl>
				<ExtendedData>
					<Data name='Lat'>
						<value>-28.2067766</value>
					</Data>
					<Data name='Long'>
						<value>152.4259472</value>
					</Data>
				</ExtendedData>
				<Point>
					<coordinates>152.4259472,-28.2067766,0.0</coordinates>
				</Point>
			</Placemark>
			<Placemark>
				<name>Mt Steamer to Lizard</name>
				<description><![CDATA[Lat: <br>Long: ]]></description>
				<styleUrl>#line-4186F0-4</styleUrl>
				<ExtendedData>
					<Data name='Lat'>
						<value></value>
					</Data>
					<Data name='Long'>
						<value></value>
					</Data>
				</ExtendedData>
				<LineString>
					<tessellate>1</tessellate>
					<coordinates>152.4564171,-28.1952033,0.0 152.4569321,-28.1956194,0.0 152.4575758,-28.1955437,0.0 152.4583912,-28.195127700000004,0.0 152.4588203,-28.194636,0.0 152.4598932,-28.1947116,0.0 152.4602795,-28.1948629,0.0 152.4611807,-28.1949764,0.0 152.46221070000004,-28.1950142,0.0 152.4637556,-28.195127700000004,0.0 152.4647427,-28.1950142,0.0 152.4659443,-28.1949007,0.0 152.4669743,-28.1950142,0.0 152.4680471,-28.1950142,0.0 152.4688625,-28.1948629,0.0 152.46967790000002,-28.194371200000003,0.0 152.4704933,-28.193766,0.0 152.4709225,-28.193123,0.0 152.471137,-28.1927826,0.0</coordinates>
				</LineString>
			</Placemark>
			<Placemark>
				<name>Mt Steamer Via Steamers</name>
				<description><![CDATA[Lat: <br>Long: ]]></description>
				<styleUrl>#line-4186F0-4</styleUrl>
				<ExtendedData>
					<Data name='Lat'>
						<value></value>
					</Data>
					<Data name='Long'>
						<value></value>
					</Data>
				</ExtendedData>
				<LineString>
					<tessellate>1</tessellate>
					<coordinates>152.426636,-28.213223,0.0 152.4272346,-28.2122602,0.0 152.4273634,-28.211277,0.0 152.42714880000003,-28.2107097,0.0 152.4268055,-28.2102181,0.0 152.4266338,-28.209726400000005,0.0 152.42616180000002,-28.2093861,0.0 152.426033,-28.2088566,0.0 152.4262047,-28.2082137,0.0 152.4262047,-28.2077599,0.0 152.4262476,-28.207343900000005,0.0 152.4267626,-28.2070035,0.0 152.4274921,-28.2066253,0.0 152.4276209,-28.206133700000002,0.0 152.4282217,-28.2056042,0.0 152.4287796,-28.2050369,0.0 152.4292946,-28.204394,0.0 152.4301958,-28.2040158,0.0 152.4317408,-28.2034485,0.0 152.4321699,-28.2028433,0.0 152.432642,-28.2025029,0.0 152.433157,-28.2022004,0.0 152.4338436,-28.2016331,0.0 152.4341011,-28.2010279,0.0 152.4347878,-28.2004228,0.0 152.4360752,-28.1998176,0.0 152.43667600000003,-28.1998555,0.0 152.4379206,-28.1998555,0.0 152.4391222,-28.1997798,0.0 152.4402809,-28.1992881,0.0 152.4416542,-28.1992503,0.0 152.4429846,-28.1987965,0.0 152.4438,-28.1987965,0.0 152.4448299,-28.1987586,0.0 152.4459457,-28.1987586,0.0 152.4471474,-28.1984561,0.0 152.4486923,-28.1983048,0.0 152.44976520000003,-28.1982291,0.0 152.4505806,-28.1978509,0.0 152.4514818,-28.1972458,0.0 152.4520826,-28.1967919,0.0 152.4526834,-28.1961867,0.0 152.45332720000002,-28.1957328,0.0 152.453928,-28.1956572,0.0 152.4544001,-28.1954681,0.0</coordinates>
				</LineString>
			</Placemark>
			<Placemark>
				<name>TestPoint</name>
				<description><![CDATA[Lat: -28.205<br>Long: 152.47]]></description>
				<styleUrl>#icon-503-000000</styleUrl>
				<ExtendedData>
					<Data name='Lat'>
						<value>-28.205</value>
					</Data>
					<Data name='Long'>
						<value>152.47</value>
					</Data>
				</ExtendedData>
				<Point>
					<coordinates>152.47,-28.205,0.0</coordinates>
				</Point>
			</Placemark>
		</Folder>
		<Folder>
			<name>SouthCunninghams</name>
			<Placemark>
				<name>?Mt Mitchell</name>
				<styleUrl>#icon-503-DB4436-nodesc</styleUrl>
				<Point>
					<coordinates>152.3899412,-28.0592942,0.0</coordinates>
				</Point>
			</Placemark>
			<Placemark>
				<name>?Spicers W.peak</name>
				<styleUrl>#icon-503-DB4436-nodesc</styleUrl>
				<Point>
					<coordinates>152.3936319,-28.0984458,0.0</coordinates>
				</Point>
			</Placemark>
			<Placemark>
				<name>?Spicers E.peak</name>
				<styleUrl>#icon-503-DB4436-nodesc</styleUrl>
				<Point>
					<coordinates>152.4080086,-28.0993923,0.0</coordinates>
				</Point>
			</Placemark>
			<Placemark>
				<name>?Governor Chair Lookout</name>
				<styleUrl>#icon-503-DB4436-nodesc</styleUrl>
				<Point>
					<coordinates>152.4175358,-28.0857061,0.0</coordinates>
				</Point>
			</Placemark>
			<Placemark>
				<name>?Mt Huntley</name>
				<styleUrl>#icon-503-DB4436-nodesc</styleUrl>
				<Point>
					<coordinates>152.4319553,-28.1432217,0.0</coordinates>
				</Point>
			</Placemark>
			<Placemark>
				<name>?Mt Asplenium</name>
				<styleUrl>#icon-503-DB4436-nodesc</styleUrl>
				<Point>
					<coordinates>152.4354744,-28.156503300000004,0.0</coordinates>
				</Point>
			</Placemark>
			<Placemark>
				<name>?Lower Panorama</name>
				<styleUrl>#icon-503-DB4436-nodesc</styleUrl>
				<Point>
					<coordinates>152.4461174,-28.1634272,0.0</coordinates>
				</Point>
			</Placemark>
		</Folder>
		<Folder>
			<name>TMapper - Test points</name>
			<Placemark>
				<name>limit</name>
				<description><![CDATA[Top left test point for map creation with TMapper]]></description>
				<styleUrl>#icon-959-000000</styleUrl>
				<Point>
					<coordinates>152.4080947,-28.1762905,0.0</coordinates>
				</Point>
			</Placemark>
			<Placemark>
				<name>limit</name>
				<description><![CDATA[BottomRight lower point for TMapper testing]]></description>
				<styleUrl>#icon-959-000000</styleUrl>
				<Point>
					<coordinates>152.4763298,-28.220088,0.0</coordinates>
				</Point>
			</Placemark>
		</Folder>
		<Style id='icon-503-000000'>
			<IconStyle>
				<color>ff000000</color>
				<scale>1.1</scale>
				<Icon>
					<href>http://www.gstatic.com/mapspro/images/stock/503-wht-blank_maps.png</href>
				</Icon>
				<hotSpot x='16' y='31' xunits='pixels' yunits='insetPixels'>
				</hotSpot>
			</IconStyle>
		</Style>
		<Style id='icon-503-DB4436'>
			<IconStyle>
				<color>ff3644DB</color>
				<scale>1.1</scale>
				<Icon>
					<href>http://www.gstatic.com/mapspro/images/stock/503-wht-blank_maps.png</href>
				</Icon>
				<hotSpot x='16' y='31' xunits='pixels' yunits='insetPixels'>
				</hotSpot>
			</IconStyle>
		</Style>
		<Style id='icon-503-DB4436-nodesc-normal'>
			<IconStyle>
				<color>ff3644DB</color>
				<scale>1.1</scale>
				<Icon>
					<href>http://www.gstatic.com/mapspro/images/stock/503-wht-blank_maps.png</href>
				</Icon>
				<hotSpot x='16' y='31' xunits='pixels' yunits='insetPixels'>
				</hotSpot>
			</IconStyle>
			<LabelStyle>
				<scale>0.0</scale>
			</LabelStyle>
			<BalloonStyle>
				<text><![CDATA[<h3>$[name]</h3>]]></text>
			</BalloonStyle>
		</Style>
		<Style id='icon-503-DB4436-nodesc-highlight'>
			<IconStyle>
				<color>ff3644DB</color>
				<scale>1.1</scale>
				<Icon>
					<href>http://www.gstatic.com/mapspro/images/stock/503-wht-blank_maps.png</href>
				</Icon>
				<hotSpot x='16' y='31' xunits='pixels' yunits='insetPixels'>
				</hotSpot>
			</IconStyle>
			<LabelStyle>
				<scale>1.1</scale>
			</LabelStyle>
			<BalloonStyle>
				<text><![CDATA[<h3>$[name]</h3>]]></text>
			</BalloonStyle>
		</Style>
		<StyleMap id='icon-503-DB4436-nodesc'>
			<Pair>
				<key>normal</key>
				<styleUrl>#icon-503-DB4436-nodesc-normal</styleUrl>
			</Pair>
			<Pair>
				<key>highlight</key>
				<styleUrl>#icon-503-DB4436-nodesc-highlight</styleUrl>
			</Pair>
		</StyleMap>
		<Style id='icon-503-F4EB37'>
			<IconStyle>
				<color>ff37EBF4</color>
				<scale>1.1</scale>
				<Icon>
					<href>http://www.gstatic.com/mapspro/images/stock/503-wht-blank_maps.png</href>
				</Icon>
				<hotSpot x='16' y='31' xunits='pixels' yunits='insetPixels'>
				</hotSpot>
			</IconStyle>
		</Style>
		<Style id='icon-959-000000-normal'>
			<IconStyle>
				<color>ff000000</color>
				<scale>1.1</scale>
				<Icon>
					<href>http://www.gstatic.com/mapspro/images/stock/959-wht-circle-blank.png</href>
				</Icon>
			</IconStyle>
			<LabelStyle>
				<scale>0.0</scale>
			</LabelStyle>
		</Style>
		<Style id='icon-959-000000-highlight'>
			<IconStyle>
				<color>ff000000</color>
				<scale>1.1</scale>
				<Icon>
					<href>http://www.gstatic.com/mapspro/images/stock/959-wht-circle-blank.png</href>
				</Icon>
			</IconStyle>
			<LabelStyle>
				<scale>1.1</scale>
			</LabelStyle>
		</Style>
		<StyleMap id='icon-959-000000'>
			<Pair>
				<key>normal</key>
				<styleUrl>#icon-959-000000-normal</styleUrl>
			</Pair>
			<Pair>
				<key>highlight</key>
				<styleUrl>#icon-959-000000-highlight</styleUrl>
			</Pair>
		</StyleMap>
		<Style id='line-4186F0-4-normal'>
			<LineStyle>
				<color>ffF08641</color>
				<width>4</width>
			</LineStyle>
		</Style>
		<Style id='line-4186F0-4-highlight'>
			<LineStyle>
				<color>ffF08641</color>
				<width>6.0</width>
			</LineStyle>
		</Style>
		<StyleMap id='line-4186F0-4'>
			<Pair>
				<key>normal</key>
				<styleUrl>#line-4186F0-4-normal</styleUrl>
			</Pair>
			<Pair>
				<key>highlight</key>
				<styleUrl>#line-4186F0-4-highlight</styleUrl>
			</Pair>
		</StyleMap>
	</Document>
</kml>